{
  "data": {
    "id": "9cd383d0-6a63-403c-b2df-b27fc509dfa3",
    "dataCadastro": "2019-07-11T16:31:10.702Z",
    "candidatoId": "cd6565ad-d520-4e6d-a139-7f17dd906b6c",
    "status": "Pronta para aplicação",
    "tipoAplicacao": "virtual",
    "virtual": {
      "dataInicioProva": "2019-07-05T10:00",
      "dataTerminoProva": "2019-31-04T10:00",
      "duracaoDaProva": 100000
    },
    "tipo": "prova",
    "idMatriz": "d40dd634-6467-401a-85bb-b1f1ce5743ae",
    "prova": {
      "titulo": "Prova de Robótica Aplicada a Computação Gráfica",
      "tema": "Determinante das Matrizes",
      "instituicao": "Universidade Federal da Casa do Chapéu",
      "tipoEmbaralhamento": 2,
      "nomeProfessor": "Zé Goiaba Da Silva Santos",
      "grupos": [
        {
          "questoes": [
            {
              "questaoMatrizId": "58e40b4a-7a1e-4405-8912-943c337b8acf",
              "numeroNaMatriz": 11,
              "numeroNaInstancia": 1,
              "fixa": false,
              "valor": 1,
              "enunciado": "<p>Atualmente é possível comprar e criar os chamados GloFish, peixes transgênicos que se tornam fluorescentes quando expostos à luz ultravioleta. Para conferir a fluorescência, pesquisadores criaram peixes que produzem em suas células a proteína GFP (proteína verde fluorescente, na sigla em inglês), presente naturalmente em medusas e que pode ser detectada sob luz ultravioleta. Considerando a tecnologia para obtenção de transgênicos, identifique como verdadeiras (V) ou falsas (F) as seguintes afirmativas:</p>",
              "tipo": "vouf",
              "vouf": {
                "afirmacoes": [
                  {
                    "texto": "<p>Os peixes GloFish foram produzidos pela introdução de um núcleo extraído de uma célula de medusa em uma célula de peixe cujo núcleo tinha sido anteriormente removido.</p>",
                    "posicaoNaMatriz": 3,
                    "respostaCandidato": null,
                    "dataRespostaCandidato": null
                  },
                  {
                    "texto": "<p>O gene que codifica a GFP foi inserido nas células somáticas, mas não nas gaméticas dos peixes GloFish.</p>",
                    "posicaoNaMatriz": 1,
                    "respostaCandidato": null,
                    "dataRespostaCandidato": null
                  },
                  {
                    "texto": "<p>As células fluorescentes dos GloFish produzem RNA mensageiro, que, por meio da tradução, origina a proteína GFP.</p>",
                    "posicaoNaMatriz": 2,
                    "respostaCandidato": null,
                    "dataRespostaCandidato": null
                  },
                  {
                    "texto": "<p>Os peixes GloFish são chamados transgênicos porque possuem em seu genoma um segmento de DNA de medusa.</p>",
                    "posicaoNaMatriz": 0,
                    "respostaCandidato": null,
                    "dataRespostaCandidato": null
                  }
                ]
              }
            },
            {
              "questaoMatrizId": "e72d121d-2a2b-41e7-b29c-04256c1f5b7e",
              "fixa": false,
              "valor": 1,
              "enunciado": "<p>Um agricultor, preocupado com o baixo desempenho de sua plantação de mandioca, resolve investir em um melhoramento genético de suas plantas para a obtenção de uma linhagem altamente produtiva. Qual o tipo de reprodução deverá ser escolhido pelo agricultor para a obtenção da variedade de mandioca adequada?</p>",
              "tipo": "multiplaEscolha",
              "multiplaEscolha": {
                "alternativas": [
                  {
                    "texto": "<p>Brotamento</p>",
                    "letraNaInstancia": "a"
                  },
                  {
                    "texto": "<p>Gemulação</p>",
                    "letraNaInstancia": "b"
                  },
                  {
                    "texto": "<p>Enxertia</p>",
                    "letraNaInstancia": "c"
                  },
                  {
                    "texto": "<p>Gâmica</p>",
                    "letraNaInstancia": "d"
                  }
                ],
                "alternativasPorLinha": 1,
                "respostaCandidato": null,
                "dataRespostaCandidato": null
              },
              "numeroNaMatriz": 14,
              "numeroNaInstancia": 2
            },
            {
              "questaoMatrizId": "4db49fa0-de67-48f4-9ec2-38f7660fa2b0",
              "numeroNaMatriz": 1,
              "numeroNaInstancia": 3,
              "fixa": false,
              "valor": 1,
              "enunciado": "<p>Assinale V (verdadeiro) ou F (falso) as afirmações sobre as funções usualmente exercidas no Sistema de Administração de Materiais.</p>",
              "tipo": "vouf",
              "vouf": {
                "afirmacoes": [
                  {
                    "texto": "<p>A atividade que tem a responsabilidade pela guarda, preservação e segurança dos materiais é o armazenamento de materiais.</p>",
                    "posicaoNaMatriz": 3,
                    "respostaCandidato": null,
                    "dataRespostaCandidato": null
                  },
                  {
                    "texto": "<p>A atividade responsável pela identificação, codificação e catalogação de materiais e fornecedores se denomina classificação de materiais.</p>",
                    "posicaoNaMatriz": 0,
                    "respostaCandidato": null,
                    "dataRespostaCandidato": null
                  },
                  {
                    "texto": "<p>A atividade responsável pelo controle, inventário e programação das necessidades do material se denomina gerência de compras.</p>",
                    "posicaoNaMatriz": 1,
                    "respostaCandidato": null,
                    "dataRespostaCandidato": null
                  },
                  {
                    "texto": "<p> A atividade responsável pela procura de fornecedores e materiais e pela opção por compra, transformação, permuta e doação é a gerência de estoques.</p>",
                    "posicaoNaMatriz": 2,
                    "respostaCandidato": null,
                    "dataRespostaCandidato": null
                  },
                  {
                    "texto": "<p>A atividade que tem a responsabilidade pelo recebimento, conferência, fornecimento, transferências e devoluções se denomina alienação de materiais.</p><p></p>",
                    "posicaoNaMatriz": 4,
                    "respostaCandidato": null,
                    "dataRespostaCandidato": null
                  }
                ]
              }
            },
            {
              "questaoMatrizId": "77d55c45-0e1f-4c39-a13a-b2524c450bf5",
              "enunciado": "<p>Non noanson  anonsoAssocie novamente. Non noanson  anonsoAssocie novamente. Non noanson  anonsoAssocie novamentehahahha ehehhehe ooaoaooaoaoaNon noanson  anonsoAssocie novamente. Non noanson  anonsoAssocie novamente. Non noanson  anonsoAssocie novamente</p>",
              "tipo": "bloco",
              "bloco": {
                "fraseInicial": "<p>asdasdasdasdads</p>",
                "questoes": [
                  {
                    "questaoMatrizId": "5562f913-585d-4541-8cb1-5131b4c5ed5e",
                    "fixa": false,
                    "valor": 1,
                    "enunciado": "<p>sdfsdfsdfNon noanson  anonsoAssocie novamente. Non noanson  anonsoAssocie novamente. Non noanson  anonsoAssocie novamentehahahha ehehhehe ooaoaooaoaoaNon noanson  anonsoAssocie novamente. Non noanson  anonsoAssocie novamente. Non noanson  anonsoAssocie novamente</p>",
                    "dificuldade": 2,
                    "tipo": "multiplaEscolha",
                    "multiplaEscolha": {
                      "alternativas": [
                        {
                          "texto": "<p>sdfsdfsdf</p>",
                          "letraNaInstancia": "a"
                        },
                        {
                          "texto": "<p>sdfsdfsdf</p>",
                          "letraNaInstancia": "b"
                        },
                        {
                          "texto": "<p>sdfsdfsdf</p>",
                          "letraNaInstancia": "c"
                        },
                        {
                          "texto": "<p class=\"align-center\">sdfsdfsdf</p>",
                          "letraNaInstancia": "d"
                        }
                      ],
                      "alternativasPorLinha": 1,
                      "respostaCandidato": null,
                      "dataRespostaCandidato": null
                    },
                    "numeroNaMatriz": 4,
                    "numeroNaInstancia": 4
                  },
                  {
                    "questaoMatrizId": "58fb4e2f-913e-44f4-b530-a1341db082eb",
                    "numeroNaMatriz": 7,
                    "numeroNaInstancia": 5,
                    "fixa": false,
                    "valor": 1,
                    "enunciado": "<p>Naonsd aons onasdo anosdo naosdn oasd</p>",
                    "dificuldade": 2,
                    "tipo": "vouf",
                    "vouf": {
                      "afirmacoes": [
                        {
                          "texto": "<p>as a dsa sd asd asd</p>",
                          "posicaoNaMatriz": 2,
                          "respostaCandidato": null,
                          "dataRespostaCandidato": null
                        },
                        {
                          "texto": "<p>a sd a sd asdasd asd a ada sd a sd asdasd asd a ada sd a sd asdasd asd a ada sd a sd asdasd asd a ada sd a sd asdasd asd a ada sd a sd asdasd asd a ada sd a sd asdasd asd a ada sd a sd asdasd asd a ada sd a sd asdasd asd a ada sd a sd asdasd asd a ada sd a sd asdasd asd a ada sd a sd asdasd asd a ada sd a sd asdasd asd a ada sd a sd asdasd asd a ada sd a sd asdasd asd a ada sd a sd asdasd asd a ada sd a sd asdasd asd a ad</p>",
                          "posicaoNaMatriz": 3,
                          "respostaCandidato": null,
                          "dataRespostaCandidato": null
                        },
                        {
                          "texto": "<p>bla bla bla</p>",
                          "posicaoNaMatriz": 0,
                          "respostaCandidato": null,
                          "dataRespostaCandidato": null
                        },
                        {
                          "texto": "<p>as asd asd asd </p>",
                          "posicaoNaMatriz": 1,
                          "respostaCandidato": null,
                          "dataRespostaCandidato": null
                        }
                      ]
                    }
                  },
                  {
                    "questaoMatrizId": "4b985389-1c66-4ff9-bea5-e1e86ffbb8e2",
                    "fixa": false,
                    "valor": 1,
                    "enunciado": "<p>asdasdasdasdaNon noanson  anonsoAssocie novamente. Non noanson  anonsoAssocie novamente. Non noanson  anonsoAssocie novamenteNon noanson  anonsoAssocie novamente. Non noanson  anonsoAssocie novamente. Non noanson  anonsoAssocie novamente</p>",
                    "dificuldade": 2,
                    "tipo": "multiplaEscolha",
                    "multiplaEscolha": {
                      "alternativas": [
                        {
                          "texto": "<p>dfdfdfdf</p>",
                          "letraNaInstancia": "a"
                        },
                        {
                          "texto": "<p>dfdfdfd</p>",
                          "letraNaInstancia": "b"
                        },
                        {
                          "texto": "<p>dfdfdf</p>",
                          "letraNaInstancia": "c"
                        },
                        {
                          "texto": "<p>dfd</p>",
                          "letraNaInstancia": "d"
                        },
                        {
                          "texto": "<p class=\"align-right\">asfdfd</p>",
                          "letraNaInstancia": "e"
                        }
                      ],
                      "alternativasPorLinha": 1,
                      "respostaCandidato": null,
                      "dataRespostaCandidato": null
                    },
                    "numeroNaMatriz": 3,
                    "numeroNaInstancia": 6
                  },
                  {
                    "questaoMatrizId": "1083b93f-f5ce-41fb-96ac-ee5aea6fbeeb",
                    "numeroNaMatriz": 6,
                    "numeroNaInstancia": 7,
                    "fixa": false,
                    "valor": 1,
                    "enunciado": "<p>Diga ai como foi a resenha de Neymar.</p>",
                    "dificuldade": 2,
                    "tipo": "discursiva",
                    "discursiva": {
                      "numeroDeLinhas": 10,
                      "respostaCandidato": null,
                      "dataRespostaCandidato": null
                    }
                  },
                  {
                    "questaoMatrizId": "2276ea75-5236-45ef-a569-aec22b3a2ff4",
                    "numeroNaMatriz": 5,
                    "numeroNaInstancia": 8,
                    "enunciado": "<p>Associe novamente. Non noanson  anonso Associe novamente. Non noanson  anonsoAssocie novamente. Non noanson  anonsoAssocie novamente. Non noanson  anonsoAssocie novamente. Non noanson  anonso Associe novamente. Non noanson  anonso Associe novamente. Non noanson  anonso Associe novamente. Non noanson  anonso Associe novamente. Non noanson  anonsoAssocie novamente. Non noanson  anonsoAssocie novamente. Non noanson  anonsoAssocie novamente. Non noanson  anonso Associe novamente. Non noanson  anonso Associe novamente. Non noanson  anonso </p>",
                    "dificuldade": 2,
                    "anoEscolar": "Ensino superior: basico",
                    "tipo": "associacaoDeColunas",
                    "elaborador": "ODocente SobrenomeDocente",
                    "fixa": false,
                    "valor": 1,
                    "associacaoDeColunas": {
                      "colunaA": [
                        {
                          "conteudo": "<p>Abacaxi Non noanson  anonsoAssocie novamente. Non noanson  anonsoAssocie novamente. Non noanson  anonsoAssocie novamente</p>",
                          "rotulo": 1,
                          "rotuloMatriz": 1,
                          "posicaoMatriz": 0
                        },
                        {
                          "conteudo": "<p>MaçãNon noanson  anonsoAssocie novamente. Non noanson  anonsoAssocie novamente. Non noanson  anonsoAssocie novamente</p>",
                          "rotulo": 2,
                          "rotuloMatriz": 2,
                          "posicaoMatriz": 1
                        }
                      ],
                      "colunaB": [
                        {
                          "conteudo": "<p>AbacateNon noanson  anonsoAssocie novamente. Non noanson  anonsoAssocie novamente. Non noanson  anonsoAssocie novamente</p>",
                          "rotuloMatriz": 2,
                          "posicaoMatriz": 0,
                          "respostaCandidato": null,
                          "dataRespostaCandidato": null
                        },
                        {
                          "conteudo": "<p>Jaca</p>",
                          "rotuloMatriz": 1,
                          "posicaoMatriz": 1,
                          "respostaCandidato": null,
                          "dataRespostaCandidato": null
                        },
                        {
                          "conteudo": "<p>Graviola</p>",
                          "rotuloMatriz": 2,
                          "posicaoMatriz": 2,
                          "respostaCandidato": null,
                          "dataRespostaCandidato": null
                        },
                        {
                          "conteudo": "<p>Imbu</p>",
                          "rotuloMatriz": 1,
                          "posicaoMatriz": 3,
                          "respostaCandidato": null,
                          "dataRespostaCandidato": null
                        }
                      ]
                    }
                  }
                ]
              },
              "fixa": false
            },
            {
              "questaoMatrizId": "83c6d322-9a30-419f-9a33-be4a5ee56b3f",
              "numeroNaMatriz": 9,
              "numeroNaInstancia": 9,
              "fixa": false,
              "valor": 1,
              "enunciado": "<p>Assinale V (verdadeiro) ou F (falso) as afirmações sobre as funções usualmente exercidas no Sistema de Administração de Materiais.</p>",
              "tipo": "vouf",
              "vouf": {
                "afirmacoes": [
                  {
                    "texto": "<p>A atividade responsável pela identificação, codificação e catalogação de materiais e fornecedores se denomina classificação de materiais.</p>",
                    "posicaoNaMatriz": 0,
                    "respostaCandidato": null,
                    "dataRespostaCandidato": null
                  },
                  {
                    "texto": "<p>A atividade responsável pelo controle, inventário e programação das necessidades do material se denomina gerência de compras.</p>",
                    "posicaoNaMatriz": 1,
                    "respostaCandidato": null,
                    "dataRespostaCandidato": null
                  },
                  {
                    "texto": "<p>A atividade que tem a responsabilidade pelo recebimento, conferência, fornecimento, transferências e devoluções se denomina alienação de materiais.</p><p></p>",
                    "posicaoNaMatriz": 4,
                    "respostaCandidato": null,
                    "dataRespostaCandidato": null
                  },
                  {
                    "texto": "<p>A atividade que tem a responsabilidade pela guarda, preservação e segurança dos materiais é o armazenamento de materiais.</p>",
                    "posicaoNaMatriz": 3,
                    "respostaCandidato": null,
                    "dataRespostaCandidato": null
                  },
                  {
                    "texto": "<p> A atividade responsável pela procura de fornecedores e materiais e pela opção por compra, transformação, permuta e doação é a gerência de estoques.</p>",
                    "posicaoNaMatriz": 2,
                    "respostaCandidato": null,
                    "dataRespostaCandidato": null
                  }
                ]
              }
            },
            {
              "questaoMatrizId": "fff3587a-eb56-4fac-a1ce-0f115371432c",
              "fixa": false,
              "valor": 1,
              "enunciado": "<p>No texto: &quot;Um escultor recebe um bloco retangular de mármore e habilmente o transforma na estátua de uma celebridade do cinema&quot;, podemos identificar matéria, corpo e objeto e, a partir daí definir esses três conceitos.</p><p></p><p>I. Matéria (mármore): tudo aquilo que tem massa e ocupa lugar no espaço.</p><p>II. Corpo (bloco retangular de mármore): porção limitada de matéria que, por sua forma especial, se</p><p>presta a um determinado uso.</p><p>III. Objeto (estátua de mármore): porção limitada de matéria.</p><p></p><p>Assinale:</p>",
              "tipo": "multiplaEscolha",
              "multiplaEscolha": {
                "alternativas": [
                  {
                    "texto": "<p>se somente as afirmativas I e II são corretas.</p>",
                    "letraNaInstancia": "a"
                  },
                  {
                    "texto": "<p>se somente a afirmativa II é correta.</p>",
                    "letraNaInstancia": "b"
                  },
                  {
                    "texto": "<p>se as afirmativas I, II e III são corretas.</p>",
                    "letraNaInstancia": "c"
                  },
                  {
                    "texto": "<p>se somente a afirmativa I é correta</p>",
                    "letraNaInstancia": "d"
                  },
                  {
                    "texto": "<p>se somente a afirmativa III é correta</p>",
                    "letraNaInstancia": "e"
                  }
                ],
                "alternativasPorLinha": 1,
                "respostaCandidato": null,
                "dataRespostaCandidato": null
              },
              "numeroNaMatriz": 12,
              "numeroNaInstancia": 10
            },
            {
              "questaoMatrizId": "9b67fa5b-1658-4464-a443-e1b1412e0456",
              "numeroNaMatriz": 10,
              "numeroNaInstancia": 11,
              "fixa": false,
              "valor": 1,
              "enunciado": "<p>Assinale V (verdadeiro) ou F (falso) as afirmações sobre as funções usualmente exercidas no Sistema de Administração de Materiais.</p>",
              "tipo": "vouf",
              "vouf": {
                "afirmacoes": [
                  {
                    "texto": "<p>A atividade responsável pelo controle, inventário e programação das necessidades do material se denomina gerência de compras.</p>",
                    "posicaoNaMatriz": 1,
                    "respostaCandidato": null,
                    "dataRespostaCandidato": null
                  },
                  {
                    "texto": "<p>A atividade que tem a responsabilidade pelo recebimento, conferência, fornecimento, transferências e devoluções se denomina alienação de materiais.</p><p></p>",
                    "posicaoNaMatriz": 4,
                    "respostaCandidato": null,
                    "dataRespostaCandidato": null
                  },
                  {
                    "texto": "<p>A atividade responsável pela identificação, codificação e catalogação de materiais e fornecedores se denomina classificação de materiais.</p>",
                    "posicaoNaMatriz": 0,
                    "respostaCandidato": null,
                    "dataRespostaCandidato": null
                  },
                  {
                    "texto": "<p>A atividade que tem a responsabilidade pela guarda, preservação e segurança dos materiais é o armazenamento de materiais.</p>",
                    "posicaoNaMatriz": 3,
                    "respostaCandidato": null,
                    "dataRespostaCandidato": null
                  },
                  {
                    "texto": "<p> A atividade responsável pela procura de fornecedores e materiais e pela opção por compra, transformação, permuta e doação é a gerência de estoques.</p>",
                    "posicaoNaMatriz": 2,
                    "respostaCandidato": null,
                    "dataRespostaCandidato": null
                  }
                ]
              }
            },
            {
              "questaoMatrizId": "b14e2d1b-6003-4917-9262-002360996011",
              "numeroNaMatriz": 2,
              "numeroNaInstancia": 12,
              "enunciado": "<p>Associe as colunas de acordo com o que vc acha que deve ser o certo. Associe las de acordo com o que vc achae deve ser </p><div class=\"image align-right\"><img src=\"http://localhost:3010/api/armazenamentos/dccc93c2-41db-4aa8-a415-f4712e9fce10/download/cb9d35c8-c9a6-4f9f-95bc-81f70773e034.png\" width=\"172\" height=\"129\" alt=\"imagem\"/></div><p>o certo.  Associe as colunas de acordo com o que vc acha que deve ser o certo.</p><p></p><p></p><p>Associe as colunas de acordo com o que vc acha que deve ser o certo.</p><p></p><p>Associe as colunas de acordo com o que vc acha que deve ser o certo.</p><p></p>",
              "tipo": "associacaoDeColunas",
              "fixa": false,
              "valor": 1,
              "associacaoDeColunas": {
                "colunaA": [
                  {
                    "conteudo": "<p>Majo</p>",
                    "rotulo": 1,
                    "rotuloMatriz": 1,
                    "posicaoMatriz": 0
                  },
                  {
                    "conteudo": "<p>10ano</p>",
                    "rotulo": 2,
                    "rotuloMatriz": 2,
                    "posicaoMatriz": 1
                  }
                ],
                "colunaB": [
                  {
                    "conteudo": "<p>Luke</p>",
                    "rotuloMatriz": 2,
                    "posicaoMatriz": 1,
                    "respostaCandidato": null,
                    "dataRespostaCandidato": null
                  },
                  {
                    "conteudo": "<p>Yoda</p>",
                    "rotuloMatriz": 1,
                    "posicaoMatriz": 0,
                    "respostaCandidato": null,
                    "dataRespostaCandidato": null
                  },
                  {
                    "conteudo": "<p>Branco</p>",
                    "rotuloMatriz": 2,
                    "posicaoMatriz": 3,
                    "respostaCandidato": null,
                    "dataRespostaCandidato": null
                  },
                  {
                    "conteudo": "<p>Verde</p>",
                    "rotuloMatriz": 1,
                    "posicaoMatriz": 2,
                    "respostaCandidato": null,
                    "dataRespostaCandidato": null
                  }
                ]
              }
            },
            {
              "questaoMatrizId": "fba69af6-4f08-4e7f-ab2c-37d3e1b1c289",
              "fixa": false,
              "valor": 1,
              "enunciado": "<p>teste</p>",
              "tipo": "multiplaEscolha",
              "multiplaEscolha": {
                "alternativas": [
                  {
                    "texto": "<p>tet</p>",
                    "letraNaInstancia": "a"
                  },
                  {
                    "texto": "<p>teste</p>",
                    "letraNaInstancia": "b"
                  },
                  {
                    "texto": "<p>teste</p>",
                    "letraNaInstancia": "c"
                  },
                  {
                    "texto": "<p>test</p>",
                    "letraNaInstancia": "d"
                  }
                ],
                "alternativasPorLinha": 3,
                "respostaCandidato": null,
                "dataRespostaCandidato": null
              },
              "numeroNaMatriz": 13,
              "numeroNaInstancia": 13
            },
            {
              "questaoMatrizId": "205b6cb9-4f93-4269-8a53-83cf00b5a69c",
              "numeroNaMatriz": 8,
              "numeroNaInstancia": 14,
              "fixa": false,
              "valor": 1,
              "enunciado": "<p>Questão teste para saber se vai dar certo. Questão teste para saber se vai dar certo. </p><div class=\"image align-right\"><img src=\"http://localhost:3010/api/armazenamentos/dccc93c2-41db-4aa8-a415-f4712e9fce10/download/4ba249be-22ea-4a48-a156-271a34a82984.png\" width=\"140\" height=\"105\" alt=\"imagem\"/></div><p>Questão teste para saber se vai d ar certo. Questão teste para saber se vai dar certo. Questã</p><p>o teste para saber se vai dar certo. Questão teste para saber se vai dar certo. Questão teste para saber se vai dar certo. </p><p></p><p></p><p>Questão teste para saber se vai dar certo. ? </p><p></p>",
              "tipo": "discursiva",
              "discursiva": {
                "numeroDeLinhas": 20,
                "respostaCandidato": null,
                "dataRespostaCandidato": null
              }
            }
          ],
          "nome": "",
          "id": "3acc424f-89fa-4664-ae30-87394740f80d",
          "numeroDeQuestoesNoGrupo": 14
        }
      ],
      "numeroDeQuestoesNaProva": 14,
      "valor": 14
    },
    "usuarioId": "dccc93c2-41db-4aa8-a415-f4712e9fce10",
    "isDeleted": false
  }
}